{
  "$schema": "https://docs.renovatebot.com/renovate-schema.json",
  "extends": [
    "config:base"
  ],
  "automerge": false,
  "automergeType": "pr",
  "semanticCommitScope": "deps",
  "semanticCommitType": "chore",
  "semanticCommits": true
}
